%YAML 1.1
%TAG !u! tag:unity3d.com,2011:
--- !u!78 &1
TagManager:
  serializedVersion: 2
  tags:
  - Ground
  - Interactable
  - Enemy
  - Player_Projectile
  - Enemy_Projectile
  layers:
  - Default
  - TransparentFX
  - Ignore Raycast
  - Ground
  - Water
  - UI
  - Player
  - Hittable
  - Obstacle
  - Projectile
  - Interactables
  - PlayerHitbox
  - EnemyHitbox
  - 
  - 
  - 
  - 
  - 
  - 
  - 
  - 
  - 
  - 
  - 
  - 
  - 
  - 
  - 
  - 
  - 
  - 
  - 
  m_SortingLayers:
  - name: Background
    uniqueID: 3034346717
    locked: 0
  - name: Objects
    uniqueID: 3587953627
    locked: 0
  - name: Enemies
    uniqueID: 515202489
    locked: 0
  - name: Player
    uniqueID: 1448248987
    locked: 0
  - name: Pickups
    uniqueID: 1746571183
    locked: 0
  - name: Default
    uniqueID: 0
    locked: 0
  - name: Snow
    uniqueID: 4275238337
    locked: 0
